<svg xmlns="http://www.w3.org/2000/svg" xmlns:xlink="http://www.w3.org/1999/xlink" width="468.985" height="323.936" viewBox="0 0 468.985 323.936">
  <defs>
    <clipPath id="clip-path">
      <path id="Clip_9" data-name="Clip 9" d="M0,0H58.588V87.308H0Z" transform="translate(0.465 0.977)" fill="none"/>
    </clipPath>
    <clipPath id="clip-path-2">
      <path id="Clip_12" data-name="Clip 12" d="M0,0H51.095V87.219H0Z" transform="translate(0 0.766)" fill="none"/>
    </clipPath>
    <clipPath id="clip-path-3">
      <path id="Clip_15" data-name="Clip 15" d="M0,323.936H468.985V0H0Z" transform="translate(0 0.064)" fill="none"/>
    </clipPath>
  </defs>
  <g id="Initial_Logo_On_Hero_Image" data-name="Initial Logo On Hero Image" transform="translate(0 -0.105)">
    <path id="Fill_1" data-name="Fill 1" d="M0,88H50V71.613H16.168V52.193H41.6V35.69H16.168V16.5H50V0H0Z" transform="translate(123 125.041)" fill="#fff"/>
    <path id="Fill_2" data-name="Fill 2" d="M70.3,58.421,60.807,28.131,69.506,0H53.024L34.811,58.425,16.5,0H0L27.567,88h14.5L52.548,54.558,62.929,88H77.559L105,0H88.508Z" transform="translate(178 125.041)" fill="#fff"/>
    <path id="Fill_3" data-name="Fill 3" d="M0,88H50V71.613H16.168V52.193H41.6V35.69H16.168V16.5H50V0H0Z" transform="translate(287 125.041)" fill="#fff"/>
    <g id="Group_24" data-name="Group 24" transform="translate(0 0.041)">
      <path id="Fill_4" data-name="Fill 4" d="M16.231,87.193H0V0H26.6A31.049,31.049,0,0,1,52.738,47.887,30.792,30.792,0,0,1,39.691,59.25L57.945,87.19l-19.414,0L22.128,62.23h-5.9V87.192Zm0-70.957V45.877H26.6a14.82,14.82,0,0,0,0-29.641Z" transform="translate(347.305 126.547)" fill="#fff"/>
      <path id="Fill_6" data-name="Fill 6" d="M16.231,87.193H0V0H26.6A31.049,31.049,0,0,1,52.738,47.887,30.792,30.792,0,0,1,39.691,59.25L57.945,87.19l-19.414,0L22.128,62.23h-5.9V87.192Zm0-70.957V45.877H26.6a14.82,14.82,0,0,0,0-29.641Z" transform="translate(57.499 126.547)" fill="#fff"/>
      <g id="Group_10" data-name="Group 10" transform="translate(409.932 125.455)">
        <path id="Clip_9-2" data-name="Clip 9" d="M0,0H58.588V87.308H0Z" transform="translate(0.465 0.977)" fill="none"/>
        <g id="Group_10-2" data-name="Group 10" clip-path="url(#clip-path)">
          <path id="Fill_8" data-name="Fill 8" d="M27.756,16.237c6.414,0,14,2.868,14.3,10.947l.115,3.179,16.421-.756-.2-3.192C57.42,10.615,45.155,0,27.873,0,14.023,0,0,8.623,0,25.105c0,19.163,14.685,23,26.487,26.089C36.5,53.812,42.166,55.613,42.166,62.2c0,6.91-7.243,8.753-11.522,8.753-4.065,0-13.6-1.066-14.3-10.941l-.219-3.064L0,57.7l.12,3.122C.8,78.209,15.928,87.308,30.529,87.308c16.408,0,27.868-10.466,27.868-25.453,0-18.936-14.678-22.782-26.475-25.872-9.945-2.6-15.57-4.388-15.57-10.762,0-8.552,9.5-8.984,11.4-8.984" transform="translate(0.465 0.977)" fill="#fff"/>
        </g>
      </g>
      <g id="Group_13" data-name="Group 13" transform="translate(0 126.636)">
        <path id="Clip_12-2" data-name="Clip 12" d="M0,0H51.095V87.219H0Z" transform="translate(0 0.766)" fill="none"/>
        <g id="Group_13-2" data-name="Group 13" clip-path="url(#clip-path-2)">
          <path id="Fill_11" data-name="Fill 11" d="M24.323,87.219H0V0H19.993a25.233,25.233,0,0,1,25.2,25.209A25.02,25.02,0,0,1,40.533,39.8a29.507,29.507,0,0,1,7.814,9.441,24.318,24.318,0,0,1,2.748,11.194A26.807,26.807,0,0,1,24.323,87.219ZM15.742,44.406V71.472h8.582A11.046,11.046,0,0,0,35.355,60.437c0-4.793-4.386-8.919-8.732-10.883Zm0-28.659V26.985L26.5,32.077a9.464,9.464,0,0,0-6.509-16.33Z" transform="translate(0 0.766)" fill="#fff"/>
        </g>
      </g>
      <path id="Clip_15-2" data-name="Clip 15" d="M0,323.936H468.985V0H0Z" transform="translate(0 0.064)" fill="none"/>
      <g id="Group_3" data-name="Group 3" clip-path="url(#clip-path-3)">
        <path id="Fill_14" data-name="Fill 14" d="M0,87.192H16.346V0H0Z" transform="translate(198.024 236.808)" fill="#fff"/>
        <path id="Fill_16" data-name="Fill 16" d="M16.232,0H0V87.192H50.078V70.955H16.232Z" transform="translate(228.595 236.808)" fill="#fff"/>
        <path id="Fill_17" data-name="Fill 17" d="M16.232,70.955V0H0V87.193H50.078V70.955Z" transform="translate(287.749 236.807)" fill="#fff"/>
        <path id="Fill_18" data-name="Fill 18" d="M37.312,39.862,16.345,29.938V0H0V87.193H16.345V47.359l20.967,9.924V87.193H53.543V0H37.312Z" transform="translate(129.523 236.807)" fill="#fff"/>
        <path id="Fill_19" data-name="Fill 19" d="M10.714,37.838H0L17.549,0h8.4L43.5,37.835H32.435L30,32.042H13.09l-2.375,5.8ZM21.373,12.052l-5.04,12.11H26.759l-5.038-12.11h-.347Z" transform="translate(142.961 64.735)" fill="#fff"/>
        <path id="Fill_20" data-name="Fill 20" d="M10.136,0V29.319H31.393v8.519H0V0Z" transform="translate(197.635 64.735)" fill="#fff"/>
        <path id="Fill_21" data-name="Fill 21" d="M0,0H35.1V8.517H22.647v29.32H12.511V8.517H0Z" transform="translate(233.254 64.735)" fill="#fff"/>
        <path id="Fill_22" data-name="Fill 22" d="M10.714,37.838H0L17.55,0h8.4L43.5,37.835H32.437L30,32.042H13.09l-2.376,5.8ZM21.373,12.052l-5.038,12.11H26.759l-5.038-12.11h-.347Z" transform="translate(271.19 64.735)" fill="#fff"/>
        <path id="Fill_23" data-name="Fill 23" d="M23.286,35.783h0L0,30.057.013,8.2,12.395,13.76,23.333,0,34.272,13.76,46.653,8.2l0,21.956-23.37,5.626Zm.047-15.7-20.71,9.3,20.666,5.078L44.175,29.44,23.333,20.082ZM33.9,15.36l-9,4.017,18.958,8.511Zm-21.135,0L2.805,27.888l18.958-8.511-1.213-.545-.013.032-7.771-3.5Zm32.6-5.17L35.11,14.814l10.256,12.9ZM1.3,10.19V27.717l10.256-12.9ZM23.333,2.065,13.605,14.3l9.728,4.368L33.061,14.3,23.333,2.065Z" transform="translate(210.157 0.065)" fill="#fff"/>
      </g>
    </g>
  </g>
</svg>
