<svg xmlns="http://www.w3.org/2000/svg" viewBox="0 0 15.66 20">
  <g data-name="Group 538">
    <g data-name="Group 537" fill="#161616" fill-rule="evenodd">
      <path data-name="Path 19544" d="M11.964.368a2.012 2.012 0 011.509-.337 1.869 1.869 0 01.963.476 1.985 1.985 0 01.645 1.44 1.952 1.952 0 01-1.878 2.023 1.979 1.979 0 01-.266-.008 1.968 1.968 0 01-.973-3.594z"/>
      <path data-name="Path 19545" d="M1.916 9.53a5.829 5.829 0 012.908-1.538 1.38 1.38 0 00.248-.04c.081-.034.217-.243.268-.3.932-1 1.795-2.038 2.7-3.057-.538-.335-1.1-.646-1.658-.963-.652.545-1.259 1.133-1.916 1.708a1.3 1.3 0 01-1.34.328 1.221 1.221 0 01-.754-1.241c.033-.507.422-.778.744-1.073.661-.6 1.341-1.223 2.025-1.816a1.888 1.888 0 01.815-.527c.042-.009.109.007.138-.049.016.048.155.011.259.02a2.066 2.066 0 01.814.357c1.23.7 2.48 1.428 3.723 2.135.241.137.488.283.733.436s.527.262.745.427a1.438 1.438 0 01.387 1.637 3.959 3.959 0 01-.715.914c-.574.67-1.2 1.363-1.786 2.045 1.24-.05 2.641-.143 3.841-.238.179.025.386-.013.606.029a1.178 1.178 0 01.943 1.35c-.162 1.774-.292 3.667-.437 5.539a1.894 1.894 0 01-.327 1.191 1.209 1.209 0 01-1.331.338 1.177 1.177 0 01-.764-1.122c0-.271.051-.57.069-.864.081-1.29.226-2.738.308-3.989-.468 0-1.073.065-1.578.079a6.433 6.433 0 01.506 3.8 5.7 5.7 0 01-1.558 3.028c-.523-.5-1.028-1.017-1.549-1.519a3.888 3.888 0 00.914-1.686 3.977 3.977 0 00-.05-2.046 3.91 3.91 0 00-3.872-2.8 3.513 3.513 0 00-1.429.327 4.709 4.709 0 00-1.1.7c-.52-.498-1.009-1.025-1.53-1.52z"/>
      <path data-name="Path 19546" d="M8.279 17.173c.413.36.8.768 1.191 1.161a2.472 2.472 0 01.377.388 6.228 6.228 0 01-4.259 1.26 6.4 6.4 0 01-1.737-.4 4.579 4.579 0 01-.457-.208 5.95 5.95 0 01-.9-.516 7.575 7.575 0 01-.754-.666 5.94 5.94 0 01-1.727-3.831 6.336 6.336 0 01.288-2.333 6.718 6.718 0 01.973-1.817c.4.35.766.745 1.15 1.122a4.71 4.71 0 01.387.4c.052.051-.044.143-.079.2a3.938 3.938 0 00-.556 1.787 3.777 3.777 0 00.516 2.163 4.094 4.094 0 001.331 1.37 3.915 3.915 0 002.055.6 3.969 3.969 0 002.201-.68z"/>
    </g>
  </g>
</svg>
